{
    // DESKTOP
    "menu-item#department-3": {
        "props": {
            "id": "Department-3",
            "type": "custom",
            "highlight": false,
            "blockClass": "menuMain",
            "itemProps": {
                "type": "internal",
                "href": "/cuidados-com-a-pele",
                "noFollow": false,
                "tagTitle": "Cuidados com a Pele",
                "text": "Cuidados com a Pele",
                "blockClass": "menu-item"
            }
        },
        "blocks": [
            "vtex.menu@2.x:submenu#d3-category-3"
        ],
        "title": "Dermocosméticos"
    },
    "vtex.menu@2.x:submenu#d3-category-3": {
        "props": {
            "blockClass": "menuMain-Submenu-left"
        },
        "children": [
            "flex-layout.row#d3-category-items-3"
        ],
        "title": "Submenu"
    },
    "flex-layout.row#d3-category-items-3": {
        "props": {
            "blockClass": "menuMain-Submenu-Box-Items"
        },
        "children": [
            "vtex.menu@2.x:menu#d3-category-3"
        ],
        "title": "Submenu - Box - Items"
    },
    /*MOBILE*/
    "menu-item#department-3-mobile": {
        "props": {
            "id": "Department-3",
            "type": "custom",
            "highlight": false,
            "blockClass": "menuMainMobile",
            "itemProps": {
                "type": "internal",
                "href": "/cuidados-com-a-pele/",
                "noFollow": false,
                "tagTitle": "Dermocosméticos",
                "text": "Dermocosméticos"
            }
        },
        "blocks": [
            "vtex.menu@2.x:submenu.accordion#d3-category-3"
        ],
        "title": "Dermocosméticos"
    },
    "vtex.menu@2.x:submenu.accordion#d3-category-3": {
        "props": {
            "orientation": "vertical",
            "blockClass": "category-level"
        },
        "children": [
            "vtex.menu@2.x:menu#d3-category-3",
            "vtex.menu@2.x:menu#d3-all-categories",
            "image#d3-banner",
            "list-context.image-list#d3-brands"
        ],
        "title": "Submenu - Accordion"
    },
    // ITEM ALL CATEGORIES - MOBILE
    "vtex.menu@2.x:menu#d3-all-categories": {
        "props": {
            "orientation": "vertical",
            "blockClass": [
                "menuMain-Submenu-Items",
                "menuMain-Submenu-Items-all"
            ],
            "items": [
                {
                    "id": "d3-all-categories",
                    "type": "custom",
                    "iconId": null,
                    "highlight": false,
                    "itemProps": {
                        "type": "internal",
                        "href": "/cuidados-com-a-pele/",
                        "noFollow": false,
                        "tagTitle": "Todos os produtos",
                        "text": "Todos os produtos"
                    }
                }
            ]
        },
        "title": "Submenu - Todos os produtos - Dermocosmeticos"
    },
    /*ITEMS - MOBILE AND DESKTOP*/
    "vtex.menu@2.x:menu#d3-category-3": {
        "props": {
            "orientation": "vertical",
            "blockClass": "menuMain-Submenu-Items",
            "items": [
                {
                    "id": "d3-category-1",
                    "type": "custom",
                    "iconId": null,
                    "highlight": false,
                    "itemProps": {
                        "type": "internal",
                        "href": "/cuidados-com-a-pele/corporal",
                        "noFollow": false,
                        "tagTitle": "Corporal",
                        "text": "Corporal"
                    }
                },
                {
                    "id": "d3-category-2",
                    "type": "custom",
                    "iconId": null,
                    "highlight": false,
                    "itemProps": {
                        "type": "internal",
                        "href": "/cuidados-com-a-pele/cuidados-com-o-sol",
                        "noFollow": false,
                        "tagTitle": "Cuidados com o Sol",
                        "text": "Cuidados com o Sol"
                    }
                },
                {
                    "id": "d3-category-3",
                    "type": "custom",
                    "iconId": null,
                    "highlight": false,
                    "itemProps": {
                        "type": "internal",
                        "href": "/cuidados-com-a-pele/facial",
                        "noFollow": false,
                        "tagTitle": "Facial",
                        "text": "Facial"
                    }
                },
                {
                    "id": "d3-category-4",
                    "type": "custom",
                    "iconId": null,
                    "highlight": false,
                    "itemProps": {
                        "type": "internal",
                        "href": "/cuidados-com-a-pele/kits",
                        "noFollow": false,
                        "tagTitle": "Kits",
                        "text": "Kits"
                    }
                },
                {
                    "id": "d3-category-5",
                    "type": "custom",
                    "iconId": null,
                    "highlight": false,
                    "itemProps": {
                        "type": "internal",
                        "href": "/cuidados-com-a-pele/repelentes",
                        "noFollow": false,
                        "tagTitle": "Repelentes",
                        "text": "Repelentes"
                    }
                },
                {
                    "id": "d3-category-6",
                    "type": "custom",
                    "iconId": null,
                    "highlight": false,
                    "itemProps": {
                        "type": "internal",
                        "href": "/cuidados-com-a-pele/tratamento",
                        "noFollow": false,
                        "tagTitle": "Tratamento",
                        "text": "Tratamento"
                    }
                }
            ]
        },
        "title": "Submenu - Itens - Dermocosméticos"
    },
    // BANNER
    "image#d3-banner": {
        "props": {
            "width": "100%",
            "height": 441,
            "src": "https://tdc0tj.vteximg.com.br/arquivos/Dermage.jpg"
        }
    },
    // MARCAS
    "list-context.image-list#d3-brands": {
        "children": [
            "slider-layout#departaments-brands"
        ],
        "props": {
            "height": 75,
            "images": []
        }
    }
}