<?xml version="1.0" encoding="utf-8"?>
<!-- Generator: Adobe Illustrator 25.3.1, SVG Export Plug-In . SVG Version: 6.00 Build 0)  -->
<svg version="1.1" id="Camada_1" xmlns="http://www.w3.org/2000/svg" xmlns:xlink="http://www.w3.org/1999/xlink" x="0px" y="0px"
	 viewBox="0 0 144 33" style="enable-background:new 0 0 144 33;" xml:space="preserve">
<style type="text/css">
	.st0{fill-rule:evenodd;clip-rule:evenodd;fill:#1D1D1B;}
	.st1{fill-rule:evenodd;clip-rule:evenodd;fill:#DE0065;}
</style>
<image style="overflow:visible;" width="144" height="33" xlink:href="data:image/jpeg;base64,/9j/4AAQSkZJRgABAgEASABIAAD/7AARRHVja3kAAQAEAAAAHgAA/+4AIUFkb2JlAGTAAAAAAQMA
EAMCAwYAAAG9AAAB3AAAAkv/2wCEABALCwsMCxAMDBAXDw0PFxsUEBAUGx8XFxcXFx8eFxoaGhoX
Hh4jJSclIx4vLzMzLy9AQEBAQEBAQEBAQEBAQEABEQ8PERMRFRISFRQRFBEUGhQWFhQaJhoaHBoa
JjAjHh4eHiMwKy4nJycuKzU1MDA1NUBAP0BAQEBAQEBAQEBAQP/CABEIACIAkQMBIgACEQEDEQH/
xACLAAEBAAMBAAAAAAAAAAAAAAAABAMFBgcBAQEAAAAAAAAAAAAAAAAAAAADEAAABgMBAAAAAAAA
AAAAAAAwQAIDNAUgAQQREQACAQEEBwkAAAAAAAAAAAAARgEDEbJzBCAwQDFRAjNBEjJCYhMjRTYS
AAAFBQAAAAAAAAAAAAAAADBAARECIUFhEgP/2gAMAwEAAhEDEQAAAOHnonAAAAAAAAPQAcPPROAA
G11SgJgAAAegAyYwAAAAAAAA6AH/2gAIAQIAAQUAPf/aAAgBAwABBQAV1CUbIf/aAAgBAQABBQCw
nkrCeSsJ+PmxbCfi93cbleJ0SCX/2gAIAQICBj8APf/aAAgBAwIGPwAVNZp0eL0tgj//2gAIAQEB
Bj8AzONUvTseZxql6djzONUvTpW9mtzONUvTpezEfJ3YiOWzdPG3W1fyvj5up1N/n9XEUxTFMUxT
FMUxTFMUxTFMUxTFMUxTPqT/2Q==" transform="matrix(1 0 0 1 0 -212.4878)">
</image>
<g>
	<path class="st0" d="M46.17,24.62c0.21,0.24,0.12,0.7-0.19,1.04c-0.5,0.53-0.99,1.06-1.52,1.55c-1.21,1.12-2.62,1.9-4.23,2.3
		c-1.74,0.44-3.47,0.41-5.17-0.13c-2.04-0.65-3.57-1.94-4.53-3.87c-1.38-2.78-1.35-5.64-0.3-8.5c1.12-3.07,3.23-5.12,6.47-5.84
		c1.91-0.42,3.84-0.39,5.71,0.31c1.35,0.5,2.39,1.35,2.62,2.88c0.18,1.14-0.17,2.15-0.88,3.04c-0.8,1.01-1.84,1.73-2.96,2.3
		c-1.6,0.83-3.25,1.59-4.88,2.36c-0.27,0.13-0.35,0.27-0.32,0.55c0.12,1.28,0.37,2.52,1.14,3.58c0.76,1.05,1.82,1.46,3.08,1.45
		c1.79-0.02,3.19-0.88,4.4-2.11c0.23-0.23,0.44-0.48,0.66-0.74C45.55,24.47,45.96,24.38,46.17,24.62z M35.9,20.75
		c0.09,0,0.13,0,0.16-0.01c2.05-0.81,3.6-2.15,4.35-4.26c0.29-0.81,0.45-1.65,0.25-2.52c-0.17-0.75-0.68-1.06-1.42-0.83
		c-0.2,0.07-0.4,0.17-0.59,0.29c-0.66,0.43-1.1,1.06-1.47,1.75c-0.65,1.23-0.99,2.57-1.16,3.94C35.96,19.66,35.94,20.2,35.9,20.75z"
		/>
	<path class="st1" d="M50.91,23.61c2.55,0.11,3.85,2.76,2.96,4.81c-0.47,1.09-1.43,1.46-2.55,1.46c-1.02,0-1.9-0.38-2.55-1.21
		c-0.45-0.58-0.63-1.26-0.64-1.98c0-1.01,0.27-1.91,1.11-2.56C49.69,23.78,50.33,23.58,50.91,23.61z"/>
	<path class="st0" d="M27.84,17.79c0.18-1.37,0.38-2.74,0.02-4.12c-0.24-0.9-0.7-1.67-1.55-2.08c-1.66-0.8-3.26-0.58-4.73,0.48
		c-1.31,0.94-2.07,2.32-2.62,3.77c-0.61,1.59-1.05,3.25-1.57,4.87c-0.04,0.12-0.08,0.25-0.12,0.37c0.02-1.12,0.15-2.21,0.21-3.31
		c0.07-1.18,0.13-2.37,0.06-3.55c-0.03-0.57-0.27-1.18-0.55-1.68c-0.8-1.4-2.42-1.71-3.89-1.46c-1.38,0.23-2.39,1.06-3.18,2.17
		c-1.13,1.59-1.74,3.4-2.3,5.24c-0.28,0.92-0.53,1.84-0.79,2.77c-0.05-0.18-0.04-0.36-0.03-0.54c0.11-2.37,0.23-4.74,0.33-7.11
		c0.03-0.59-0.23-1.03-0.71-1.36c-0.62-0.44-1.33-0.66-2.06-0.83c-0.95-0.21-1.9-0.34-2.87-0.18c-0.33,0.05-0.48,0.2-0.5,0.58
		c-0.15,3.05-0.33,6.11-0.5,9.16c-0.1,1.82-0.24,3.64-0.29,5.46c-0.04,1.33,0.74,2.3,1.87,2.56c1.11,0.26,2.23,0.24,3.35,0.11
		c0.33-0.04,0.49-0.17,0.56-0.49c0.09-0.39,0.24-0.77,0.35-1.16c0.48-1.82,0.93-3.64,1.44-5.45c0.62-2.21,1.23-4.43,2.17-6.53
		c0.28-0.62,0.62-1.22,1.05-1.75c0.44-0.54,0.7,0.12,0.7,0.3c-0.02,0.7-0.05,1.39-0.13,2.09c-0.27,2.48-0.57,4.95-0.82,7.44
		c-0.12,1.19-0.23,2.39-0.03,3.59c0.18,1.1,0.8,1.77,1.89,2.01c1.13,0.25,2.26,0.19,3.4,0.08c0.3-0.03,0.44-0.15,0.51-0.45
		c0.53-2.08,1.08-4.16,1.63-6.24c0.56-2.15,1.11-4.31,2-6.35c0.33-0.77,0.69-1.55,1.22-2.2c0.55-0.68,0.82,0.08,0.8,0.3
		c-0.09,1.11-0.22,2.22-0.33,3.32c-0.25,2.6-0.42,5.19-0.55,7.8c-0.1,2.04,0.34,5.69,4.11,7.21c1.21,0.49,2.52,0.15,3.62-0.53
		c0.47-0.3,0.89-0.67,1.14-1.23C25.38,30.01,27.43,21.01,27.84,17.79z"/>
	<path class="st0" d="M141.19,16.6c-0.07-0.9-0.59-1.62-1.42-2.02c-1.26-0.61-2.56-0.56-3.86-0.1c-0.3,0.1-0.46,0.26-0.52,0.58
		c-0.33,5.36-3.78,10.54-4.8,11.49c-0.41,0.38-0.91,0.37-1.23-0.09c-0.17-0.24-0.29-0.54-0.37-0.83c-0.31-1.07-0.3-2.16-0.22-3.25
		c0.17-2.27,0.68-4.44,1.91-6.38c1.31-2.06,3.18-3.18,5.66-3.2c1.02-0.01,1.98,0.27,2.94,0.65c0.74-0.76,0.63-1.88-0.26-2.4
		c-0.34-0.2-0.73-0.36-1.12-0.45c-2.22-0.49-4.42-0.33-6.58,0.32c-3.28,1-5.79,2.98-7.5,5.96c-0.88,1.54-1.38,3.2-1.46,4.96
		c-0.05,1.13,0.08,2.24,0.43,3.3c-0.29,0.75-0.42,0.98-1.16,2.14c-0.86,1.36-2.56,1.18-2.81,0.26c-0.29-1.1-0.15-2.09-0.09-3.25
		c0.15-3.21,0.31-6.42,0.54-9.63c0.18-2.43,0.48-4.84,0.72-7.27c0.12-1.23,0.25-2.46,0.32-3.69c0.05-0.89-0.26-1.66-1.03-2.17
		c-1.08-0.71-2.28-0.92-3.54-0.68c-0.52,0.1-0.93,0.37-1,1.01c-0.26,2.66-0.55,5.32-0.83,7.98c-0.03,0.28-0.07,0.56-0.1,0.83
		c-0.07,0-0.09,0.01-0.11,0c-1.71-0.64-3.41-0.46-5.05,0.21c-2.63,1.08-4.38,3.1-5.59,5.6c-1.05,2.16-1.41,4.44-1.01,6.82
		c0.03,0.18,0.06,0.36,0.1,0.54c-0.29,0.62-0.58,1.25-0.9,1.85c-0.66,1.24-1.37,1.96-1.56,2.11c-0.41,0.33-0.85,0.19-1.02-0.31
		c-0.12-0.36-0.19-0.74-0.2-1.12c-0.12-3.11,0.24-6.19,0.6-9.26c0.14-1.25,0.28-2.48,0.01-3.74c-0.28-1.34-1.39-2.44-2.75-2.62
		c-2.03-0.27-3.62,0.48-4.84,2.09c-1.02,1.35-1.62,2.91-2.15,4.5c-0.28,0.86-0.53,1.72-0.79,2.59c-0.05-0.22-0.05-0.43-0.04-0.63
		c0.06-1.85,0.12-3.69,0.18-5.53c0.04-1.17-0.42-2.06-1.48-2.62c-0.75-0.39-1.51-0.6-2.34-0.65c-0.63-0.03-1.3,0.04-1.93,0.09
		c-0.26,0.02-0.4,0.2-0.46,0.46c-0.11,0.47-0.24,0.93-0.37,1.39c-0.77,2.75-1.51,5.52-2.33,8.26c-0.5,1.67-1.13,3.3-2,4.82
		c-0.35,0.62-0.75,1.22-1.38,1.6c-0.56,0.34-0.96,0.18-1.08-0.46c-0.08-0.46-0.16-0.93-0.12-1.39c0.18-2.31,0.4-4.63,0.62-6.94
		c0.15-1.5,0.37-3,0.49-4.51c0.09-1.08-0.06-2.15-1.03-2.84c-0.43-0.3-0.95-0.56-1.46-0.63c-0.84-0.12-1.71-0.08-2.56-0.07
		c-0.31,0-0.58,0.13-0.63,0.53c-0.09,0.7-0.23,1.38-0.32,2.08c-0.23,1.9-0.47,3.81-0.66,5.71c-0.07,0.71-1.93,6.38-3.56,8.49
		c-0.33,0.43-0.74,0.84-1.19,1.13c-0.81,0.53-1.65,0.25-2.07-0.63c-0.14-0.3-0.26-0.62-0.34-0.95c-0.2-1.31-0.19-1.22-0.21-1.8
		c0.81-1.02,1.05-1.27,1.68-2.76c1.53-3.61,2.3-6.88,3.14-10.43c0.44-1.87,0.87-4.36,1.03-6.27c0.1-1.15,0.12-2.31-0.28-3.43
		c-0.27-0.76-0.76-1.32-1.56-1.57c-1.32-0.41-2.62-0.25-3.88,0.22c-1.62,0.61-2.77,1.79-3.68,3.22c-1.19,1.85-1.88,3.91-2.36,6.04
		c-0.76,3.4-1.14,6.83-0.94,10.31c0.12,2.04,0.46,4.04,1.3,5.91c0.91,2.01,2.24,3.59,4.53,4.07c1.96,0.41,3.7,0.01,5.12-1.48
		c1.07-1.12,1.73-2.44,2.4-3.81c0.33-0.68,0.44-1.15,0.66-1.66c0.02,0.28,0.05,0.56,0.09,0.83c0.34,2.36,1.57,4.41,4.37,4.87
		c1.51,0.25,2.8-0.07,3.84-1.24c0.85-0.95,1.43-2.05,1.93-3.2c1.04-2.44,1.71-4.99,2.39-7.54c0.03-0.12,0.08-0.24,0.13-0.36
		c-0.08,2.14-0.23,4.27-0.33,6.39c-0.06,1.19-0.09,2.38-0.06,3.58c0.02,0.99,0.51,1.74,1.47,2.09c1.32,0.49,2.68,0.41,4.04,0.2
		c0.07-0.01,0.16-0.14,0.19-0.23c0.23-0.75,0.45-1.51,0.65-2.26c0.59-2.14,1.12-4.3,1.77-6.42c0.51-1.68,1.16-3.31,1.78-4.95
		c0.26-0.68,1.06-1.9,1.46-1.72c0.22,0.1,0.16,0.39,0.14,0.57c-0.1,0.83-0.22,1.66-0.34,2.48c-0.34,2.22-0.58,4.44-0.61,6.68
		c-0.02,1.67,0.15,3.31,0.87,4.86c0.36,0.79,0.85,1.44,1.55,1.88v0.01c0.02,0.01,0.04,0.02,0.05,0.03c0.05,0.03,0.1,0.06,0.15,0.08
		c0.57,0.32,1.19,0.48,1.83,0.49c2.13,0.05,3.45-1.54,3.45-1.54c0.39-0.41,0.73-0.86,1.05-1.34c0.48-0.71,0.91-1.45,1.3-2.21
		c0.31,0.79,0.74,1.52,1.38,2.16c1.5,1.5,4.15,1.72,5.85,0.45c1.16-0.87,1.88-2.07,2.5-3.33c0.28-0.57,0.52-1.16,0.78-1.74
		c0.07,0.14,0.06,0.27,0.06,0.4c0.03,1.35,0.11,2.69,0.5,3.99c0.26,0.86,0.61,1.67,1.26,2.31c1.49,1.48,6.43,1.49,8.24-2.2
		c0.15-0.31,0.23-0.51,0.28-0.67c0.48,0.85,1.09,1.59,1.97,2.09c2.44,1.39,5.68,0.41,7.62-2.25c1.04-1.44,1.57-2.52,1.97-3.95
		c0.03-0.12,0.07-0.24,0.1-0.36c0.09,0.11,0.1,0.2,0.11,0.29c0.04,0.98,0.07,1.96,0.14,2.94c0.08,1.23,0.26,2.22,0.93,3.28
		c0.66,1.04,1.54,1.75,2.81,1.82c1.3,0.08,2.51-0.28,3.6-0.96c0.47-0.29,0.89-0.67,1.14-1.23C138.72,28,141.28,17.8,141.19,16.6z
		 M63.21,6.94c0.61-3.32,1.61-5.12,2.24-5.1c0.42,0.01,0.99,0.81,0.83,2.47c-0.14,1.42-0.3,3.92-0.71,6.13
		c-0.53,2.89-2.66,11.23-3.27,11.64C61.99,18.17,62.66,9.92,63.21,6.94z M113.69,13c-0.13,1.75-0.22,3.49-0.38,5.24
		c-0.05,0.55-0.2,1.1-0.38,1.63c-0.59,1.72-1.19,3.44-2.12,5.02c-0.26,0.45-0.58,0.89-0.96,1.24c-0.58,0.55-1.15,0.38-1.38-0.39
		c-0.17-0.57-0.28-1.16-0.35-1.75c-0.08-0.58-0.07-1.17-0.09-1.65c0.08-2.04,0.37-3.92,0.96-5.77c0.37-1.16,0.81-2.28,1.58-3.24
		c0.56-0.7,1.22-1.22,2.17-1.25c0.05,0,0.1-0.01,0.14-0.01C113.66,12.1,113.75,12.22,113.69,13z"/>
	<path class="st0" d="M74.31,8.44c1.12,0.01,2.08-0.37,2.55-1.46c0.89-2.05-0.41-4.7-2.96-4.81c-0.58-0.03-1.22,0.17-1.67,0.52
		c-0.84,0.65-1.11,1.55-1.1,2.56c0,0.72,0.18,1.4,0.64,1.98C72.41,8.06,73.28,8.43,74.31,8.44z"/>
</g>
</svg>
