{
  "store.custom#faq": {
    "children": [
      "flex-layout.row#faq"
    ]
  },

  "flex-layout.row#faq": {
    "props": {
      "blockClass": "faq"
    },
    "children": [
      "flex-layout.col#faq"
    ]
  },

  "flex-layout.col#faq": {
    "children": [
      "rich-text#faq",
      "disclosure-layout-group#group-faq"
    ]
  },
  "rich-text#faq": {
    "props": {
      "text": "## Perguntas Frequentes",
      "blockClass":"faq-title"      
    }
  },

  "disclosure-layout-group#group-faq": {
    "children": [
      "disclosure-layout#first-faq",
      "disclosure-layout#second-faq",
      "disclosure-layout#third-faq",
      "disclosure-layout#fourth-faq",
      "disclosure-layout#fifth-faq",
      "disclosure-layout#sixth-faq",
      "disclosure-layout#seventh-faq",
      "disclosure-layout#eighth-faq",
      "disclosure-layout#ninth-faq",
      "disclosure-layout#tenth-faq",
      "disclosure-layout#th-eleventh-faq",
      "disclosure-layout#th-th-twelfth-faq",
      "disclosure-layout#th-thirteenth-faq",
      "disclosure-layout#th-fourteenth-faq",
      "disclosure-layout#th-fifteenth-faq",
      "disclosure-layout#th-sixteenth-faq",
      "disclosure-layout#th-seventeenth-faq",
      "disclosure-layout#th-eighteenth-faq",
      "disclosure-layout#th-nineteenth-faq",
      "disclosure-layout#th-twentieth-faq",
      "disclosure-layout#twenty-first-faq",
      "disclosure-layout#twenty-second-faq",
      "disclosure-layout#twenty-third-faq",
      "disclosure-layout#twenty-fourth-faq",
      "disclosure-layout#twenty-fifth-faq",
      "disclosure-layout#twenty-sixth-faq",
      "disclosure-layout#twenty-seventh-faq",
      "disclosure-layout#twenty-eighth-faq",
      "disclosure-layout#twenty-ninth-faq",
      "disclosure-layout#thirtieth-faq",
      "disclosure-layout#thirty-first-faq",
      "disclosure-layout#fortieth-faq",
      "disclosure-layout#fiftieth-faq",
      "disclosure-layout#sixtieth-faq",
      "disclosure-layout#seventieth-faq"
    ]
  },

  "disclosure-layout#first-faq": {
    "props": {
      "animated": true
    },
    "children": ["disclosure-trigger#first-faq", "disclosure-content#first-faq"]
  },
  "disclosure-trigger#first-faq": {
    "props": {
      "blockClass": "question",
      "as": "div"
    },
    "children": ["disclosure-state-indicator#faq", "rich-text#question-faq-1"]
  },
  "disclosure-content#first-faq": {
    "props": {
      "blockClass": "answer"
    },
    "children": ["rich-text#answer-faq-1"]
  },
  "rich-text#question-faq-1": {
    "props": {
      "blockClass":"faq-question",
      "text": "1.1.1.1) Qual é o prazo de entrega?"
    }
  },
  "rich-text#answer-faq-1": {
    "props": {
      "blockClass":"faq-answer",
      "text": "O prazo de entrega pode variar de acordo com cada CEP e opção de frete escolhido.\n **Atenção:**\nO prazo de entrega será contado após o 1º dia útil da aprovação do pedido. Este prazo pode ser alterado em períodos de campanhas específicas.As datas de entrega são uma estimativa e em situações como chuvas em excesso,  áreas de risco extremo e zonas rurais poderão haver extensão desse prazo. Serão realizadas até 3 tentativas de entrega e caso nenhuma delas tenha sucesso a sua encomenda será devolvida para a Me.Linda. Se identificar algum erro após o recebimento do seu pedido, não viole a embalagem do produto e nos envie uma foto do item que informaremos os procedimentos que deve seguir."
    }
  },

  "disclosure-layout#second-faq": {
    "props": {
      "animated": true
    },
    "children": ["disclosure-trigger#second-faq", "disclosure-content#second-faq"]
  },
  "disclosure-trigger#second-faq": {
    "props": {
      "blockClass": "question",
      "as": "div"
    },
    "children": ["disclosure-state-indicator#faq", "rich-text#question-faq-2"]
  },
  "disclosure-content#second-faq": {
    "props": {
      "blockClass": "answer"
    },
    "children": ["rich-text#answer-faq-2"]
  },
  "rich-text#question-faq-2": {
    "props": {
      "blockClass":"faq-question",
      "text": "1.1.1.2) Quais são os tipos de entregas disponíveis?"
    }
  },
  "rich-text#answer-faq-2": {
    "props": {
      "blockClass":"faq-answer",
      "text": "Temos os tipos de frete: normal, expresso e super expresso. Após inserir os produtos no carrinho, você pode identificar quais estão disponíveis para seu endereço e os respectivos prazos."
    }
  },


  "disclosure-layout#third-faq": {
    "props": {
      "animated": true
    },
    "children": ["disclosure-trigger#third-faq", "disclosure-content#third-faq"]
  },
  "disclosure-trigger#third-faq": {
    "props": {
      "blockClass": "question",
      "as": "div"
    },
    "children": ["disclosure-state-indicator#faq", "rich-text#question-faq-3"]
  },
  "disclosure-content#third-faq": {
    "props": {
      "blockClass": "answer"
    },
    "children": ["rich-text#answer-faq-3"]
  },
  "rich-text#question-faq-3": {
    "props": {
      "blockClass":"faq-question",
      "text": "1.1.1.3) Como faço para ver onde está o meu pedido ?"
    }
  },
  "rich-text#answer-faq-3": {
    "props": {
      "blockClass":"faq-answer",
      "text": "Clique em https://portalvesta.sequoialog.com.br/#/app2/rastreamento-consulta E digite seu CPF e número do Pedido"
    }
  },


  "disclosure-layout#fourth-faq": { 
    "props": {
      "animated": true
    },
    "children": ["disclosure-trigger#fourth-faq", "disclosure-content#fourth-faq"]
  },
  "disclosure-trigger#fourth-faq": {
    "props": {
      "blockClass": "question",
      "as": "div"
    },
    "children": ["disclosure-state-indicator#faq", "rich-text#question-faq-4"]
  },
  "disclosure-content#fourth-faq": {
    "props": {
      "blockClass": "answer"
    },
    "children": ["rich-text#answer-faq-4"]
  },
  "rich-text#question-faq-4": {
    "props": {
      "blockClass":"faq-question",
      "text": "1.1.1.4) Qual é o valor do frete?"
    }
  },
  "rich-text#answer-faq-4": {
    "props": {
      "blockClass":"faq-answer",
      "text": "Para visualizar as condições de frete disponíveis para o seu endereço de entrega é só adicionar os itens que deseja em sua sacola de compras, inserir seu CEP na finalização do pedido e as opções serão exibidas automaticamente. Os nossos prazos e preços de entrega variam de acordo com o CEP e a opção de frete escolhida."
    }
  },
  
  "disclosure-layout#fifth-faq": { 
    "props": {
      "animated": true
    },
    "children": ["disclosure-trigger#fifth-faq", "disclosure-content#fifth-faq"]
  },
  "disclosure-trigger#fifth-faq": {
    "props": {
      "blockClass": "question",
      "as": "div"
    },
    "children": ["disclosure-state-indicator#faq", "rich-text#question-faq-5"]
  },
  "disclosure-content#fifth-faq": {
    "props": {
      "blockClass": "answer"
    },
    "children": ["rich-text#answer-faq-5"]
  },
  "rich-text#question-faq-5": {
    "props": {
      "blockClass":"faq-question",
      "text": "1.1.1.5) Posso mudar o endereço de entrega?"
    }
  },
  "rich-text#answer-faq-5": {
    "props": {
      "blockClass":"faq-answer",
      "text": "Se você já finalizou o pedido, o endereço não poderá ser alterado. Se ainda assim, precisar de ajuda, entre em contato com a gente e vamos te ajudar. Caso queira mudar o endereço antes de fazer um pedido, basta fazer o login em sua conta na Me.Linda e clicar em MINHA CONTA>MEUS ENDEREÇOS. Pronto! Agora é só adicionar ou excluir o endereço que deseja."
    }
  },
  
  "disclosure-layout#sixth-faq": { 
    "props": {
      "animated": true
    },
    "children": ["disclosure-trigger#sixth-faq", "disclosure-content#sixth-faq"]
  },
  "disclosure-trigger#sixth-faq": {
    "props": {
      "blockClass": "question",
      "as": "div"
    },
    "children": ["disclosure-state-indicator#faq", "rich-text#question-faq-6"]
  },
  "disclosure-content#sixth-faq": {
    "props": {
      "blockClass": "answer"
    },
    "children": ["rich-text#answer-faq-6"]
  },
  "rich-text#question-faq-6": {
    "props": {
      "blockClass":"faq-question",
      "text": "1.1.2.1) Como devolver o produto que quero trocar na Me.Linda?"
    }
  },
  "rich-text#answer-faq-6": {
    "props": {
      "blockClass":"faq-answer",
      "text": "Você pode devolver o produto em até 7 dias corridos após a data de recebimento e em sua embalagem original, da mesma maneira em que foi enviado. Essa devolução vai ser feita através de postagem via agência dos Correios e você deve solicitar através do email devolucao@melinda.com.br Esse é um direito que está no artigo 49 do Código de Defesa do Consumidor. É possível reutilizar a própria embalagem da Me.Linda para o envio do produto, ocultando as informações de remetente/destinatário. Escreva na embalagem o código da postagem. Não serão aceitos produtos nas seguintes condições:\n * Embalagens abertas ou avariadas;\n * Embalado apenas em plástico bolha;\n * Sem embalagem;\n * Sem identificação do pedido;\n * Sem envio da nota fiscal.\n\n</br>A sua devolução passará por uma análise assim que for recebida em nosso centro de distribuição e se aprovada, a devolução do valor será feita da seguinte forma:\n**Cartão de Crédito**, a devolução do valor total ou parcial ocorrerá através de estorno no cartão de crédito em até 60 dias corridos a contar da data de solicitação. Se a solicitação for reprovada, o item enviado será automaticamente devolvido para você no endereço de origem do pedido e sem comunicação prévia.\n**IMPORTANTE:** no caso de cancelamento da compra ou devolução de produtos, os brindes correspondentes aos itens devolvidos devem ser enviados à Me.Linda. Brindes concedidos em compras acima de determinado valor devem ser devolvidos caso o cancelamento interfira no valor final da compra. Se o total da sacola permanecer igual ou acima do valor que dá direito ao brinde, não é preciso devolvê-la."
    }
  },
  
  "disclosure-layout#seventh-faq": { 
    "props": {
      "animated": true
    },
    "children": ["disclosure-trigger#seventh-faq", "disclosure-content#seventh-faq"]
  },
  "disclosure-trigger#seventh-faq": {
    "props": {
      "blockClass": "question",
      "as": "div"
    },
    "children": ["disclosure-state-indicator#faq", "rich-text#question-faq-7"]
  },
  "disclosure-content#seventh-faq": {
    "props": {
      "blockClass": "answer"
    },
    "children": ["rich-text#answer-faq-7"]
  },
  "rich-text#question-faq-7": {
    "props": {
      "blockClass":"faq-question",
      "text": "1.1.2.2) Como trocar um produto com defeito?"
    }
  },
  "rich-text#answer-faq-7": {
    "props": {
      "blockClass":"faq-answer",
      "text": "Você pode trocar um produto com defeito em até 30 dias corridos após a data de recebimento. Envie um e-mail para devolucao@melinda.com.br contendo:\n\n * Número do pedido \n * Lote\n * Validade\n * Nome do produto que deseja trocar \n * Foto do produto que deseja trocar\n * Motivo da troca.\n\n </br> Em até 48h úteis responderemos seu e-mail com as informações necessárias para a solução."
    }
  },
  
  "disclosure-layout#eighth-faq": { 
    "props": {
      "animated": true
    },
    "children": ["disclosure-trigger#eighth-faq", "disclosure-content#eighth-faq"]
  },
  "disclosure-trigger#eighth-faq": {
    "props": {
      "blockClass": "question",
      "as": "div"
    },
    "children": ["disclosure-state-indicator#faq", "rich-text#question-faq-8"]
  },
  "disclosure-content#eighth-faq": {
    "props": {
      "blockClass": "answer"
    },
    "children": ["rich-text#answer-faq-8"]
  },
  "rich-text#question-faq-8": {
    "props": {
      "blockClass":"faq-question",
      "text": "1.1.2.3) Recebi um produto diferente do comprado, o que devo fazer?"
    }
  },
  "rich-text#answer-faq-8": {
    "props": {
      "blockClass":"faq-answer",
      "text": "Enviar um e-mail para devolucao@melinda.com.br com uma foto do item e número do pedido e após análise nós informaremos como será resolvido."
    }
  },

  
  "disclosure-layout#ninth-faq": { 
    "props": {
      "animated": true
    },
    "children": ["disclosure-trigger#ninth-faq", "disclosure-content#ninth-faq"]
  },
  "disclosure-trigger#ninth-faq": {
    "props": {
      "blockClass": "question",
      "as": "div"
    },
    "children": ["disclosure-state-indicator#faq", "rich-text#question-faq-9"]
  },
  "disclosure-content#ninth-faq": {
    "props": {
      "blockClass": "answer"
    },
    "children": ["rich-text#answer-faq-9"]
  },
  "rich-text#question-faq-9": {
    "props": {
      "blockClass":"faq-question",
      "text": "1.1.2.4) Meu produto veio quebrado, o que fazer?"
    }
  },
  "rich-text#answer-faq-9": {
    "props": {
      "blockClass":"faq-answer",
      "text": "Se o seu pedido estiver dentro do prazo de 7 dias corridos do recebimento, pode enviar um e-mail para devolucao@melinda.com.br seguindo as seguintes orientações: \n * Foto da caixa enviada pela Me.Linda\n * Foto do produto \n * Lote\n * Validade\n\n </br> Daremos um retorno em até 24h úteis após a análise das informações e fotos recebidas. Caso a solicitação seja aprovada, você receberá um código para postagem do produto e ao recebermos, faremos a baixa da Nota Fiscal e se aprovada, vamos gerar um cupom no valor dos produtos validados e devolvidos e deixaremos disponível em seu acesso no site."
    }
  },

  "disclosure-layout#tenth-faq": { 
    "props": {
      "animated": true
    },
    "children": ["disclosure-trigger#tenth-faq", "disclosure-content#tenth-faq"]
  },
  "disclosure-trigger#tenth-faq": {
    "props": {
      "blockClass": "question",
      "as": "div"
    },
    "children": ["disclosure-state-indicator#faq", "rich-text#question-faq-10"]
  },
  "disclosure-content#tenth-faq": {
    "props": {
      "blockClass": "answer"
    },
    "children": ["rich-text#answer-faq-10"]
  },
  "rich-text#question-faq-10": {
    "props": {
      "blockClass":"faq-question",
      "text": "1.1.3.1) Meu pedido está atrasado, o que fazer?"
    }
  },
  "rich-text#answer-faq-10": {
    "props": {
      "blockClass":"faq-answer",
      "text": "Se o seu pedido estiver fora do prazo de entrega, envie um e-mail para sac@melinda.com.br e vamos ajudar você!"
    }
  },

  "disclosure-layout#th-eleventh-faq": { 
    "props": {
      "animated": true
    },
    "children": ["disclosure-trigger#th-eleventh-faq", "disclosure-content#th-eleventh-faq"]
  },
  "disclosure-trigger#th-eleventh-faq": {
    "props": {
      "blockClass": "question",
      "as": "div"
    },
    "children": ["disclosure-state-indicator#faq", "rich-text#question-faq-11"]
  },
  "disclosure-content#th-eleventh-faq": {
    "props": {
      "blockClass": "answer"
    },
    "children": ["rich-text#answer-faq-11"]
  },
  "rich-text#question-faq-11": {
    "props": {
      "blockClass":"faq-question",
      "text": "1.1.3.2) Como acompanhar o meu pedido?"
    }
  },
  "rich-text#answer-faq-11": {
    "props": {
      "blockClass":"faq-answer",
      "text": "Entre nesse link: https://portalvesta.sequoialog.com.br/#/app2/rastreamento-consulta e digite seu CPF e número de pedido"
    }
  }, 

  "disclosure-layout#th-th-twelfth-faq": { 
    "props": {
      "animated": true
    },
    "children": ["disclosure-trigger#th-th-twelfth-faq", "disclosure-content#th-th-twelfth-faq"]
  },
  "disclosure-trigger#th-th-twelfth-faq": {
    "props": {
      "blockClass": "question",
      "as": "div"
    },
    "children": ["disclosure-state-indicator#faq", "rich-text#question-faq-12"]
  },
  "disclosure-content#th-th-twelfth-faq": {
    "props": {
      "blockClass": "answer"
    },
    "children": ["rich-text#answer-faq-12"]
  },
  "rich-text#question-faq-12": {
    "props": {
      "blockClass":"faq-question",
      "text": "1.1.3.3) Como funciona o processo de aprovação de pedidos?"
    }
  },
  "rich-text#answer-faq-12": {
    "props": {
      "blockClass":"faq-answer",
      "text": "Realizamos uma análise criteriosa de todos os pedidos recebidos e para a sua segurança somente são aprovados os pedidos que possuem todos os critérios positivos dessa análise. Assim que o pedido for aprovado, enviaremos um e-mail com a confirmação de pagamento."
    }
  },	

  "disclosure-layout#th-thirteenth-faq": { 
    "props": {
      "animated": true
    },
    "children": ["disclosure-trigger#th-thirteenth-faq", "disclosure-content#th-thirteenth-faq"]
  },
  "disclosure-trigger#th-thirteenth-faq": {
    "props": {
      "blockClass": "question",
      "as": "div"
    },
    "children": ["disclosure-state-indicator#faq", "rich-text#question-faq-13"]
  },
  "disclosure-content#th-thirteenth-faq": {
    "props": {
      "blockClass": "answer"
    },
    "children": ["rich-text#answer-faq-13"]
  },
  "rich-text#question-faq-13": {
    "props": {
      "blockClass":"faq-question",
      "text": "1.1.3.4) Como faço para ganhar brindes?"
    }
  },
  "rich-text#answer-faq-13": {
    "props": {
      "blockClass":"faq-answer",
      "text": "Você deve acompanhar as campanhas e promoções diariamente para verificar aquelas que possuem brindes atrelados. Vale ressaltar que os brindes podem ser alterados conforme disponibilidade em estoque e o envio pode ser aleatório."
    }
  },

  "disclosure-layout#th-fourteenth-faq": { 
    "props": {
      "animated": true
    },
    "children": ["disclosure-trigger#th-fourteenth-faq", "disclosure-content#th-fourteenth-faq"]
  },
  "disclosure-trigger#th-fourteenth-faq": {
    "props": {
      "blockClass": "question",
      "as": "div"
    },
    "children": ["disclosure-state-indicator#faq", "rich-text#question-faq-14"]
  },
  "disclosure-content#th-fourteenth-faq": {
    "props": {
      "blockClass": "answer"
    },
    "children": ["rich-text#answer-faq-14"]
  },
  "rich-text#question-faq-14": {
    "props": {
      "blockClass":"faq-question",
      "text": "1.1.3.5) A Me.Linda faz contato ativo?"
    }
  },
  "rich-text#answer-faq-14": {
    "props": {
      "blockClass":"faq-answer",
      "text": "Sim, essas ligações acontecem em situações específicas, por exemplo: confirmação de informações para concluir tratativas em andamento, confirmação de endereço para entrega quando não localizado, etc."
    }
  },

  "disclosure-layout#th-fifteenth-faq": { 
    "props": {
      "animated": true
    },
    "children": ["disclosure-trigger#th-fifteenth-faq", "disclosure-content#th-fifteenth-faq"]
  },
  "disclosure-trigger#th-fifteenth-faq": {
    "props": {
      "blockClass": "question",
      "as": "div"
    },
    "children": ["disclosure-state-indicator#faq", "rich-text#question-faq-15"]
  },
  "disclosure-content#th-fifteenth-faq": {
    "props": {
      "blockClass": "answer"
    },
    "children": ["rich-text#answer-faq-15"]
  },
  "rich-text#question-faq-15": {
    "props": {
      "blockClass":"faq-question",
      "text": "1.1.4.1) Posso alterar meu e-mail ou CPF?"
    }
  },
  "rich-text#answer-faq-15": {
    "props": {
      "blockClass":"faq-answer",
      "text": "Esses dados não podem ser alterados, será necessário criar um cadastro com o novo e-mail (o CPF pode ser utilizado em mais de um cadastro)."
    }
  },

  "disclosure-layout#th-sixteenth-faq": { 
    "props": {
      "animated": true
    },
    "children": ["disclosure-trigger#th-sixteenth-faq", "disclosure-content#th-sixteenth-faq"]
  },
  "disclosure-trigger#th-sixteenth-faq": {
    "props": {
      "blockClass": "question",
      "as": "div"
    },
    "children": ["disclosure-state-indicator#faq", "rich-text#question-faq-16"]
  },
  "disclosure-content#th-sixteenth-faq": {
    "props": {
      "blockClass": "answer"
    },
    "children": ["rich-text#answer-faq-16"]
  },
  "rich-text#question-faq-16": {
    "props": {
      "blockClass":"faq-question",
      "text": "1.1.4.2) Como faço para alterar os meus dados cadastrais?"
    }
  },
  "rich-text#answer-faq-16": {
    "props": {
      "blockClass":"faq-answer",
      "text": "Faça seu login no site e clique em Minha Conta, do lado esquerdo temos as seguintes opções:\n * Meus dados pessoais;\n * Meus endereços;\n * Meus cartões;\n * Alterar senha.\n\n</br> É só escolher a informação que deseja alterar. Importante: caso você tenha alguma dúvida envie um e-mail para sac@melinda.com.br que vamos ajudar você!"
    }
  },	

  "disclosure-layout#th-seventeenth-faq": { 
    "props": {
      "animated": true
    },
    "children": ["disclosure-trigger#th-seventeenth-faq", "disclosure-content#th-seventeenth-faq"]
  },
  "disclosure-trigger#th-seventeenth-faq": {
    "props": {
      "blockClass": "question",
      "as": "div"
    },
    "children": ["disclosure-state-indicator#faq", "rich-text#question-faq-17"]
  },
  "disclosure-content#th-seventeenth-faq": {
    "props": {
      "blockClass": "answer"
    },
    "children": ["rich-text#answer-faq-17"]
  },
  "rich-text#question-faq-17": {
    "props": {
      "blockClass":"faq-question",
      "text": "1.1.4.3) Como faço para me cadastrar no site?"
    }
  },
  "rich-text#answer-faq-17": {
    "props": {
      "blockClass":"faq-answer",
      "text": "Para realizar seu cadastro, clique na opção **>** Olá! Entrar na Minha Conta **>** Acessar Minha Conta no topo do site da Me.Linda. Em seguida, na parte inferior do site clique em Não possui cadastro ainda Crie sua Conta, digite os dados solicitados, clique em Continuar e preencha os demais dados cadastrais solicitados. Pronto! Você já pode fazer as suas compras."
    }
  },

  "disclosure-layout#th-eighteenth-faq": { 
    "props": {
      "animated": true
    },
    "children": ["disclosure-trigger#th-eighteenth-faq", "disclosure-content#th-eighteenth-faq"]
  },
  "disclosure-trigger#th-eighteenth-faq": {
    "props": {
      "blockClass": "question",
      "as": "div"
    },
    "children": ["disclosure-state-indicator#faq", "rich-text#question-faq-18"]
  },
  "disclosure-content#th-eighteenth-faq": {
    "props": {
      "blockClass": "answer"
    },
    "children": ["rich-text#answer-faq-18"]
  },
  "rich-text#question-faq-18": {
    "props": {
      "blockClass":"faq-question",
      "text": "1.1.4.4) Como resgatar a minha senha?"
    }
  },
  "rich-text#answer-faq-18": {
    "props": {
      "blockClass":"faq-answer",
      "text": "No canto direito do site selecione **Minha Conta**, insira seu e-mail de cadastro e clique no botão **Continuar**, em seguida você vai ter duas opções: Esqueci minha senha: nessa opção você vai receber em seu e-mail as orientações para criar uma nova senha.\n Acesso rápido por e-mail: você recebe um link em seu e-mail e ao clicar nele você acessa o site."
    }
  },	

  "disclosure-layout#th-nineteenth-faq": { 
    "props": {
      "animated": true
    },
    "children": ["disclosure-trigger#th-nineteenth-faq", "disclosure-content#th-nineteenth-faq"]
  },
  "disclosure-trigger#th-nineteenth-faq": {
    "props": {
      "blockClass": "question",
      "as": "div"
    },
    "children": ["disclosure-state-indicator#faq", "rich-text#question-faq-19"]
  },
  "disclosure-content#th-nineteenth-faq": {
    "props": {
      "blockClass": "answer"
    },
    "children": ["rich-text#answer-faq-19"]
  },
  "rich-text#question-faq-19": {
    "props": {
      "blockClass":"faq-question",
      "text": "1.1.4.5) Não me recordo do e-mail utilizado em meu cadastro, o que devo fazer?"
    }
  },
  "rich-text#answer-faq-19": {
    "props": {
      "blockClass":"faq-answer",
      "text": "Nesse caso será necessário fazer um novo cadastro para garantir o seu acesso e compras futuras. Se tiver mais dúvidas, envie um e-mail para sac@melinda.com.br que ajudamos você."
    }
  },

  "disclosure-layout#th-twentieth-faq": { 
    "props": {
      "animated": true
    },
    "children": ["disclosure-trigger#th-twentieth-faq", "disclosure-content#th-twentieth-faq"]
  },
  "disclosure-trigger#th-twentieth-faq": {
    "props": {
      "blockClass": "question",
      "as": "div"
    },
    "children": ["disclosure-state-indicator#faq", "rich-text#question-faq-20"]
  },
  "disclosure-content#th-twentieth-faq": {
    "props": {
      "blockClass": "answer"
    },
    "children": ["rich-text#answer-faq-20"]
  },
  "rich-text#question-faq-20": {
    "props": {
      "blockClass":"faq-question",
      "text": "1.1.5.1) Como entrar em contato com vocês?"
    }
  },
  "rich-text#answer-faq-20": {
    "props": {
      "blockClass":"faq-answer",
      "text": "Para você falar com a gente é só acessar o Chat ou enviar um e-mail para atendimento@melinda.com.br"
    }
  },

  "disclosure-layout#twenty-first-faq": { 
    "props": {
      "animated": true
    },
    "children": ["disclosure-trigger#twenty-first-faq", "disclosure-content#twenty-first-faq"]
  },
  "disclosure-trigger#twenty-first-faq": {
    "props": {
      "blockClass": "question",
      "as": "div"
    },
    "children": ["disclosure-state-indicator#faq", "rich-text#question-faq-21"]
  },
  "disclosure-content#twenty-first-faq": {
    "props": {
      "blockClass": "answer"
    },
    "children": ["rich-text#answer-faq-21"]
  },
  "rich-text#question-faq-21": {
    "props": {
      "blockClass":"faq-question",
      "text": "1.1.5.2) Como faço para cancelar minha compra?"
    }
  },
  "rich-text#answer-faq-21": {
    "props": {
      "blockClass":"faq-answer",
      "text": "Caso tenha feito o pagamento do pedido com cartão, entre em contato com a nossa central de relacionamento pelo Chat, pois como o faturamento acontece de forma rápida, nós vamos precisar auxiliar você."
    }
  },
  
  "disclosure-layout#twenty-second-faq": { 
    "props": {
      "animated": true
    },
    "children": ["disclosure-trigger#twenty-second-faq", "disclosure-content#twenty-second-faq"]
  },
  "disclosure-trigger#twenty-second-faq": {
    "props": {
      "blockClass": "question",
      "as": "div"
    },
    "children": ["disclosure-state-indicator#faq", "rich-text#question-faq-22"]
  },
  "disclosure-content#twenty-second-faq": {
    "props": {
      "blockClass": "answer"
    },
    "children": ["rich-text#answer-faq-22"]
  },
  "rich-text#question-faq-22": {
    "props": {
      "blockClass":"faq-question",
      "text": "1.1.5.3) Como faço minhas compras?"
    }
  },
  "rich-text#answer-faq-22": {
    "props": {
      "blockClass":"faq-answer",
      "text": "É só escolher a categoria do produto que deseja no menu superior do site. Se já souber o nome dos itens é só digitar no campo “O que você procura hoje?” e a página abre direto no produto.\n Você também pode navegar pelas melhores marcas do mercado, lá no menu MARCAS e em cada produto que você clica indicamos a descrição, resultados e o conselho para aplicação.\n Após escolher os itens que deseja, clique no botão Comprar e então siga o passo a passo até finalizar a compra.\n**Importante:**\n * Na compra de mais de um produto, as entregas poderão ser feitas separadamente.\n * Para aproveitar nossos descontos e ganhar brindes você deve ficar atento aos critérios de cada campanha: Cupom ou valor mínimo. Nas campanhas de Cupom, você deve inserir o código do cupom no campo **Tem cupom de desconto?** e clicar no botão **Aplicar**. Para campanhas de valor mínimo, o valor considerado para ativar a premiação é o da soma dos produtos. Portanto, frete e outras taxas não são considerados.\n * Produtos na sacola não reservam estoque.\n * Os brindes estão sujeitos ao estoque e podem ser enviados aleatoriamente."
    }
  },

  "disclosure-layout#twenty-third-faq": { 
    "props": {
      "animated": true
    },
    "children": ["disclosure-trigger#twenty-third-faq", "disclosure-content#twenty-third-faq"]
  },
  "disclosure-trigger#twenty-third-faq": {
    "props": {
      "blockClass": "question",
      "as": "div"
    },
    "children": ["disclosure-state-indicator#faq", "rich-text#question-faq-23"]
  },
  "disclosure-content#twenty-third-faq": {
    "props": {
      "blockClass": "answer"
    },
    "children": ["rich-text#answer-faq-23"]
  },
  "rich-text#question-faq-23": {
    "props": {
      "blockClass":"faq-question",
      "text": "1.1.5.4) Tem valor mínimo para compra?"
    }
  },
  "rich-text#answer-faq-23": {
    "props": {
      "blockClass":"faq-answer",
      "text": "Não, porém existem campanhas específicas considerando determinadas faixas de valores. É só acompanhar diariamente em nosso site ou aplicativo para aproveitar todas elas."
    }
  },

  "disclosure-layout#twenty-fourth-faq": { 
    "props": {
      "animated": true
    },
    "children": ["disclosure-trigger#twenty-fourth-faq", "disclosure-content#twenty-fourth-faq"]
  },
  "disclosure-trigger#twenty-fourth-faq": {
    "props": {
      "blockClass": "question",
      "as": "div"
    },
    "children": ["disclosure-state-indicator#faq", "rich-text#question-faq-24"]
  },
  "disclosure-content#twenty-fourth-faq": {
    "props": {
      "blockClass": "answer"
    },
    "children": ["rich-text#answer-faq-24"]
  },
  "rich-text#question-faq-24": {
    "props": {
      "blockClass":"faq-question",
      "text": "1.1.5.5) A Me.Linda vende atacado?"
    }
  },
  "rich-text#answer-faq-24": {
    "props": {
      "blockClass":"faq-answer",
      "text": "Não, a quantidade máxima do mesmo produto por pedido são de até 5 (cinco) unidades"
    }
  },

  "disclosure-layout#twenty-fifth-faq": { 
    "props": {
      "animated": true
    },
    "children": ["disclosure-trigger#twenty-fifth-faq", "disclosure-content#twenty-fifth-faq"]
  },
  "disclosure-trigger#twenty-fifth-faq": {
    "props": {
      "blockClass": "question",
      "as": "div"
    },
    "children": ["disclosure-state-indicator#faq", "rich-text#question-faq-25"]
  },
  "disclosure-content#twenty-fifth-faq": {
    "props": {
      "blockClass": "answer"
    },
    "children": ["rich-text#answer-faq-25"]
  },
  "rich-text#question-faq-25": {
    "props": {
      "blockClass":"faq-question",
      "text": "1.1.6.1) Quais são os meios de pagamentos disponíveis?"
    }
  },
  "rich-text#answer-faq-25": {
    "props": {
      "blockClass":"faq-answer",
      "text": "Cartão de Crédito\nNo cartão de crédito você pode parcelar as compras em até 6x sem juros em todos os departamentos desde que a parcela mínima seja de R$ 40,00"
    }
  },

  "disclosure-layout#twenty-sixth-faq": { 
    "props": {
      "animated": true
    },
    "children": ["disclosure-trigger#twenty-sixth-faq", "disclosure-content#twenty-sixth-faq"]
  },
  "disclosure-trigger#twenty-sixth-faq": {
    "props": {
      "blockClass": "question",
      "as": "div"
    },
    "children": ["disclosure-state-indicator#faq", "rich-text#question-faq-26"]
  },
  "disclosure-content#twenty-sixth-faq": {
    "props": {
      "blockClass": "answer"
    },
    "children": ["rich-text#answer-faq-26"]
  },
  "rich-text#question-faq-26": {
    "props": {
      "blockClass":"faq-question",
      "text": "1.1.6 2) Posso alterar a forma de pagamento de um pedido finalizado?"
    }
  },
  "rich-text#answer-faq-26": {
    "props": {
      "blockClass":"faq-answer",
      "text": "Quando um pedido é finalizado nenhuma alteração pode ser feita, mas se você precisar de alguma ajuda muito específica, envie e-mail para sac@melinda.com.br que vamos ajudar você com esclarecimentos."
    }
  },

  "disclosure-layout#twenty-seventh-faq": { 
    "props": {
      "animated": true
    },
    "children": ["disclosure-trigger#twenty-seventh-faq", "disclosure-content#twenty-seventh-faq"]
  },
  "disclosure-trigger#twenty-seventh-faq": {
    "props": {
      "blockClass": "question",
      "as": "div"
    },
    "children": ["disclosure-state-indicator#faq", "rich-text#question-faq-27"]
  },
  "disclosure-content#twenty-seventh-faq": {
    "props": {
      "blockClass": "answer"
    },
    "children": ["rich-text#answer-faq-27"]
  },
  "rich-text#question-faq-27": {
    "props": {
      "blockClass":"faq-question",
      "text": "1.1.6.3) Posso efetuar o pagamento com 2 cartões de crédito?"
    }
  },
  "rich-text#answer-faq-27": {
    "props": {
      "blockClass":"faq-answer",
      "text": "Não, o pagamento pode ser efetuado em um cartão por pedido."
    }
  },

  "disclosure-layout#twenty-eighth-faq": { 
    "props": {
      "animated": true
    },
    "children": ["disclosure-trigger#twenty-eighth-faq", "disclosure-content#twenty-eighth-faq"]
  },
  "disclosure-trigger#twenty-eighth-faq": {
    "props": {
      "blockClass": "question",
      "as": "div"
    },
    "children": ["disclosure-state-indicator#faq", "rich-text#question-faq-28"]
  },
  "disclosure-content#twenty-eighth-faq": {
    "props": {
      "blockClass": "answer"
    },
    "children": ["rich-text#answer-faq-28"]
  },
  "rich-text#question-faq-28": {
    "props": {
      "blockClass":"faq-question",
      "text": "1.1.6.4) Quais são as bandeiras de cartões de créditos aceitas?"
    }
  },
  "rich-text#answer-faq-28": {
    "props": {
      "blockClass":"faq-answer",
      "text": "Aceitamos as bandeiras Visa, MasterCard, American Express, Elo e Hipercard. Para garantir sua segurança todos os pedidos passam por uma análise de dados cadastrais. Caso seja necessário entrar em contato para a confirmação de dados, é importante que seus dados estejam sempre completos e atualizados. O prazo de entrega começa a contar após a aprovação do pedido."
    }
  },

  "disclosure-layout#twenty-ninth-faq": { 
    "props": {
      "animated": true
    },
    "children": ["disclosure-trigger#twenty-ninth-faq", "disclosure-content#twenty-ninth-faq"]
  },
  "disclosure-trigger#twenty-ninth-faq": {
    "props": {
      "blockClass": "question",
      "as": "div"
    },
    "children": ["disclosure-state-indicator#faq", "rich-text#question-faq-29"]
  },
  "disclosure-content#twenty-ninth-faq": {
    "props": {
      "blockClass": "answer"
    },
    "children": ["rich-text#answer-faq-29"]
  },
  "rich-text#question-faq-29": {
    "props": {
      "blockClass":"faq-question",
      "text": "1.1.7) Loja Física"
    }
  },
  "rich-text#answer-faq-29": {
    "props": {
      "blockClass":"faq-answer",
      "text": "EM BREVE!"
    }
  },
  
  "disclosure-layout#thirtieth-faq": { 
    "props": {
      "animated": true
    },
    "children": ["disclosure-trigger#thirtieth-faq", "disclosure-content#thirtieth-faq"]
  },
  "disclosure-trigger#thirtieth-faq": {
    "props": {
      "blockClass": "question",
      "as": "div"
    },
    "children": ["disclosure-state-indicator#faq", "rich-text#question-faq-30"]
  },
  "disclosure-content#thirtieth-faq": {
    "props": {
      "blockClass": "answer"
    },
    "children": ["rich-text#answer-faq-30"]
  },
  "rich-text#question-faq-30": {
    "props": {
      "blockClass":"faq-question",
      "text": "1.1.8.1) Os produtos vendidos na Me.Linda são originais?"
    }
  },
  "rich-text#answer-faq-30": {
    "props": {
      "blockClass":"faq-answer",
      "text": "Todos os produtos da Me.Linda são originais e certificados pela ADIPEC - Associação dos Distribuidores e Importadores de Perfumes, Cosméticos e Similares que garante a autenticidade e origem."
    }
  },

  "disclosure-layout#thirty-first-faq": { 
    "props": {
      "animated": true
    },
    "children": ["disclosure-trigger#thirty-first-faq", "disclosure-content#thirty-first-faq"]
  },
  "disclosure-trigger#thirty-first-faq": {
    "props": {
      "blockClass": "question",
      "as": "div"
    },
    "children": ["disclosure-state-indicator#faq", "rich-text#question-faq-31"]
  },
  "disclosure-content#thirty-first-faq": {
    "props": {
      "blockClass": "answer"
    },
    "children": ["rich-text#answer-faq-31"]
  },
  "rich-text#question-faq-31": {
    "props": {
      "blockClass":"faq-question",
      "text": "1.1.8.2) Como vou saber que o meu pedido foi enviado?"
    }
  },
  "rich-text#answer-faq-31": {
    "props": {
      "blockClass":"faq-answer",
      "text": "Sempre que você fizer um pedido, poderá acompanhá-lo através do prórpio site, no link https://www.melinda.com.br/minha-conta#/meus-pedidos"
    }
  },

  "disclosure-layout#fortieth-faq": { 
    "props": {
      "animated": true
    },
    "children": ["disclosure-trigger#fortieth-faq", "disclosure-content#fortieth-faq"]
  },
  "disclosure-trigger#fortieth-faq": {
    "props": {
      "blockClass": "question",
      "as": "div"
    },
    "children": ["disclosure-state-indicator#faq", "rich-text#question-faq-32"]
  },
  "disclosure-content#fortieth-faq": {
    "props": {
      "blockClass": "answer"
    },
    "children": ["rich-text#answer-faq-32"]
  },
  "rich-text#question-faq-32": {
    "props": {
      "blockClass":"faq-question",
      "text": "1.1.8.3) O que preciso saber se for a minha primeira compra na Internet?"
    }
  },
  "rich-text#answer-faq-32": {
    "props": {
      "blockClass":"faq-answer",
      "text": "Primeiro você precisa saber que vai amar a comodidade e segundo para que essa experiência seja ainda mais incrível é importantíssimo que os seus dados cadastrais estejam sempre atualizados, pois eles serão fundamentais no processo de entrega."
    }
  },

  "disclosure-layout#fiftieth-faq": { 
    "props": {
      "animated": true
    },
    "children": ["disclosure-trigger#fiftieth-faq", "disclosure-content#fiftieth-faq"]
  },
  "disclosure-trigger#fiftieth-faq": {
    "props": {
      "blockClass": "question",
      "as": "div"
    },
    "children": ["disclosure-state-indicator#faq", "rich-text#question-faq-33"]
  },
  "disclosure-content#fiftieth-faq": {
    "props": {
      "blockClass": "answer"
    },
    "children": ["rich-text#answer-faq-33"]
  },
  "rich-text#question-faq-33": {
    "props": {
      "blockClass":"faq-question",
      "text": "1.1.8.4) É seguro comprar na Me.Linda?"
    }
  },
  "rich-text#answer-faq-33": {
    "props": {
      "blockClass":"faq-answer",
      "text": "Sim, nós temos um processo de criptografia dos dados que previne que eles sejam trafegados possam ser capturados, ou mesmo alterados no seu curso entre o navegador do usuário e o site com o qual ele está se relacionando, garantindo desta forma uma compra segura."
    }
  },

  

  "disclosure-layout#sixtieth-faq": { 
    "props": {
      "animated": true
    },
    "children": ["disclosure-trigger#sixtieth-faq", "disclosure-content#sixtieth-faq"]
  },
  "disclosure-trigger#sixtieth-faq": {
    "props": {
      "blockClass": "question",
      "as": "div"
    },
    "children": ["disclosure-state-indicator#faq", "rich-text#question-faq-34"]
  },
  "disclosure-content#sixtieth-faq": {
    "props": {
      "blockClass": "answer"
    },
    "children": ["rich-text#answer-faq-34"]
  },
  "rich-text#question-faq-34": {
    "props": {
      "blockClass":"faq-question",
      "text": "1.1.8.5) Como posso pagar meu pedido?"
    }
  },
  "rich-text#answer-faq-34": {
    "props": {
      "blockClass":"faq-answer",
      "text": "Você pode fazer o pagamento de seus pedidos utilizando cartão de crédito."
    }
  },

  "disclosure-layout#seventieth-faq": { 
    "props": {
      "animated": true
    },
    "children": ["disclosure-trigger#seventieth-faq", "disclosure-content#seventieth-faq"]
  },
  "disclosure-trigger#seventieth-faq": {
    "props": {
      "blockClass": "question",
      "as": "div"
    },
    "children": ["disclosure-state-indicator#faq", "rich-text#question-faq-35"]
  },
  "disclosure-content#seventieth-faq": {
    "props": {
      "blockClass": "answer"
    },
    "children": ["rich-text#answer-faq-35"]
  },
  "rich-text#question-faq-35": {
    "props": {
      "blockClass":"faq-question",
      "text": "1.2) E-mail"
    }
  },
  "rich-text#answer-faq-35": {
    "props": {
      "blockClass":"faq-answer",
      "text": "envie email para atendimento@melinda.com.br"
    }
  },

  "disclosure-state-indicator#faq": {
    "props": {
      "Show": "icon-caret#down-faq",
      "Hide": "icon-caret#up-faq"
    }
  },
  
  "icon-caret#down-faq": {
    "props": {
      "orientation": "down"
    }
  },
  "icon-caret#up-faq": {
    "props": {
      "orientation": "up"
    }
  }

  
}
